%YAML 1.1
%TAG !u! tag:unity3d.com,2011:
--- !u!74 &7400000
AnimationClip:
  m_ObjectHideFlags: 0
  m_CorrespondingSourceObject: {fileID: 0}
  m_PrefabInstance: {fileID: 0}
  m_PrefabAsset: {fileID: 0}
  m_Name: menu_fire
  serializedVersion: 6
  m_Legacy: 0
  m_Compressed: 0
  m_UseHighQualityCurve: 1
  m_RotationCurves: []
  m_CompressedRotationCurves: []
  m_EulerCurves: []
  m_PositionCurves: []
  m_ScaleCurves: []
  m_FloatCurves: []
  m_PPtrCurves:
  - curve:
    - time: 0
      value: {fileID: 21300000, guid: ab201d9cbc6b0f6408497f6ba246b9ee, type: 3}
    - time: 0.21666667
      value: {fileID: 21300000, guid: d859971f07c02804b8ce9afa2ed9e4e9, type: 3}
    - time: 0.43333334
      value: {fileID: 21300000, guid: b90db16f384c2bc498e70632d007a2ea, type: 3}
    - time: 0.68333334
      value: {fileID: 21300000, guid: c1263bb3a8ef8e447907d2d8b542c1bf, type: 3}
    - time: 0.9166667
      value: {fileID: 21300000, guid: daa369a2aecaa444d8267a80af65f2e2, type: 3}
    - time: 1.7
      value: {fileID: 21300000, guid: ab201d9cbc6b0f6408497f6ba246b9ee, type: 3}
    - time: 1.9166666
      value: {fileID: 21300000, guid: d859971f07c02804b8ce9afa2ed9e4e9, type: 3}
    - time: 2.1333334
      value: {fileID: 21300000, guid: b90db16f384c2bc498e70632d007a2ea, type: 3}
    - time: 2.3833334
      value: {fileID: 21300000, guid: c1263bb3a8ef8e447907d2d8b542c1bf, type: 3}
    - time: 2.6166666
      value: {fileID: 21300000, guid: daa369a2aecaa444d8267a80af65f2e2, type: 3}
    attribute: m_Sprite
    path: 
    classID: 212
    script: {fileID: 0}
  m_SampleRate: 60
  m_WrapMode: 0
  m_Bounds:
    m_Center: {x: 0, y: 0, z: 0}
    m_Extent: {x: 0, y: 0, z: 0}
  m_ClipBindingConstant:
    genericBindings:
    - serializedVersion: 2
      path: 0
      attribute: 0
      script: {fileID: 0}
      typeID: 212
      customType: 23
      isPPtrCurve: 1
    pptrCurveMapping:
    - {fileID: 21300000, guid: ab201d9cbc6b0f6408497f6ba246b9ee, type: 3}
    - {fileID: 21300000, guid: d859971f07c02804b8ce9afa2ed9e4e9, type: 3}
    - {fileID: 21300000, guid: b90db16f384c2bc498e70632d007a2ea, type: 3}
    - {fileID: 21300000, guid: c1263bb3a8ef8e447907d2d8b542c1bf, type: 3}
    - {fileID: 21300000, guid: daa369a2aecaa444d8267a80af65f2e2, type: 3}
    - {fileID: 21300000, guid: ab201d9cbc6b0f6408497f6ba246b9ee, type: 3}
    - {fileID: 21300000, guid: d859971f07c02804b8ce9afa2ed9e4e9, type: 3}
    - {fileID: 21300000, guid: b90db16f384c2bc498e70632d007a2ea, type: 3}
    - {fileID: 21300000, guid: c1263bb3a8ef8e447907d2d8b542c1bf, type: 3}
    - {fileID: 21300000, guid: daa369a2aecaa444d8267a80af65f2e2, type: 3}
  m_AnimationClipSettings:
    serializedVersion: 2
    m_AdditiveReferencePoseClip: {fileID: 0}
    m_AdditiveReferencePoseTime: 0
    m_StartTime: 0
    m_StopTime: 2.6333332
    m_OrientationOffsetY: 0
    m_Level: 0
    m_CycleOffset: 0
    m_HasAdditiveReferencePose: 0
    m_LoopTime: 1
    m_LoopBlend: 0
    m_LoopBlendOrientation: 0
    m_LoopBlendPositionY: 0
    m_LoopBlendPositionXZ: 0
    m_KeepOriginalOrientation: 0
    m_KeepOriginalPositionY: 1
    m_KeepOriginalPositionXZ: 0
    m_HeightFromFeet: 0
    m_Mirror: 0
  m_EditorCurves: []
  m_EulerEditorCurves: []
  m_HasGenericRootTransform: 0
  m_HasMotionFloatCurves: 0
  m_Events: []
