%YAML 1.1
%TAG !u! tag:unity3d.com,2011:
--- !u!74 &7400000
AnimationClip:
  m_ObjectHideFlags: 0
  m_CorrespondingSourceObject: {fileID: 0}
  m_PrefabInstance: {fileID: 0}
  m_PrefabAsset: {fileID: 0}
  m_Name: slime_death
  serializedVersion: 6
  m_Legacy: 0
  m_Compressed: 0
  m_UseHighQualityCurve: 1
  m_RotationCurves: []
  m_CompressedRotationCurves: []
  m_EulerCurves: []
  m_PositionCurves: []
  m_ScaleCurves: []
  m_FloatCurves: []
  m_PPtrCurves:
  - curve:
    - time: 0
      value: {fileID: 21300000, guid: 8a9808fdb88e3fe4db268c2ba8fde6ac, type: 3}
    - time: 0.25
      value: {fileID: 21300000, guid: d932d95626169104391da63f0aa94783, type: 3}
    - time: 0.5
      value: {fileID: 21300000, guid: 3072d2b71641cf041a278601cc17c19a, type: 3}
    - time: 0.73333335
      value: {fileID: 21300000, guid: 3bf6fa78488bcf446b92b91725838803, type: 3}
    - time: 0.98333335
      value: {fileID: 21300000, guid: d62020c281bad4347bd8c474449d786f, type: 3}
    attribute: m_Sprite
    path: 
    classID: 212
    script: {fileID: 0}
  m_SampleRate: 60
  m_WrapMode: 0
  m_Bounds:
    m_Center: {x: 0, y: 0, z: 0}
    m_Extent: {x: 0, y: 0, z: 0}
  m_ClipBindingConstant:
    genericBindings:
    - serializedVersion: 2
      path: 0
      attribute: 0
      script: {fileID: 0}
      typeID: 212
      customType: 23
      isPPtrCurve: 1
    pptrCurveMapping:
    - {fileID: 21300000, guid: 8a9808fdb88e3fe4db268c2ba8fde6ac, type: 3}
    - {fileID: 21300000, guid: d932d95626169104391da63f0aa94783, type: 3}
    - {fileID: 21300000, guid: 3072d2b71641cf041a278601cc17c19a, type: 3}
    - {fileID: 21300000, guid: 3bf6fa78488bcf446b92b91725838803, type: 3}
    - {fileID: 21300000, guid: d62020c281bad4347bd8c474449d786f, type: 3}
  m_AnimationClipSettings:
    serializedVersion: 2
    m_AdditiveReferencePoseClip: {fileID: 0}
    m_AdditiveReferencePoseTime: 0
    m_StartTime: 0
    m_StopTime: 1
    m_OrientationOffsetY: 0
    m_Level: 0
    m_CycleOffset: 0
    m_HasAdditiveReferencePose: 0
    m_LoopTime: 1
    m_LoopBlend: 0
    m_LoopBlendOrientation: 0
    m_LoopBlendPositionY: 0
    m_LoopBlendPositionXZ: 0
    m_KeepOriginalOrientation: 0
    m_KeepOriginalPositionY: 1
    m_KeepOriginalPositionXZ: 0
    m_HeightFromFeet: 0
    m_Mirror: 0
  m_EditorCurves: []
  m_EulerEditorCurves: []
  m_HasGenericRootTransform: 0
  m_HasMotionFloatCurves: 0
  m_Events: []
